shop01@sample.com,12345678,SHOP01,1
shop02@sample.com,12345678,SHOP02,1
shop03@sample.com,12345678,SHOP03,1
shop04@sample.com,12345678,SHOP04,1
shop05@sample.com,12345678,SHOP05,1
shop06@sample.com,12345678,SHOP06,1
shop07@sample.com,12345678,SHOP07,1
shop08@sample.com,12345678,SHOP08,1
shop09@sample.com,12345678,SHOP09,1
shop10@sample.com,12345678,SHOP10,1
user01@sample.com,12345678,USER01,0
user02@sample.com,12345678,USER02,0
user03@sample.com,12345678,USER03,0
user04@sample.com,12345678,USER04,0